---------- Date: 2015-02-05 05:30:41 ~ IP : 192.168.254.134 ----------
REQUEST URI : /smartart_com/
MOD DETAILS:
   modFile   : E:\DynoBASE\PROJECT\001 ApacheSite\smartart_com\vqmod/xml/vqmod_admin_filter_products_by_category_1_5_5_1.xml
   id        : Filter Products By Category
   version   : 1.0.0
   vqmver    : 1.0.8
   author    : Modification: Hildebrando; vQmod: Gigo
VQModObject::parseMods - Could not resolve path for [admin/language/croatia/catalog/product.php] (SKIPPED)
----------------------------------------------------------------------


